hw4
…
b.

election2014 <- nzge %>%
  filter(election_year == 2014, voting_type == "Candidate") %>%
  group_by(party) %>%
  summarise(votes = sum(votes, na.rm = TRUE), .groups = "drop") %>%
  mutate(proportion = 100 * votes / sum(votes)) %>%
  arrange(desc(proportion))
election2014

# A tibble: 25 × 3
   party                      votes proportion
   <chr>                      <dbl>      <dbl>
 1 National Party           1081787     45.5  
 2 Labour Party              801287     33.7  
 3 Green Party               165718      6.98 
 4 Conservative Party         81075      3.41 
 5 New Zealand First Party    73384      3.09 
 6 Maori Party                42108      1.77 
 7 MANA Movement              32333      1.36 
 8 Informal Candidate Votes   27886      1.17 
 9 ACT New Zealand            27778      1.17 
10 United Future              14722      0.620
# ℹ 15 more rows
…
a.

library(tidyverse)
m <- read_csv(
  "https://raw.githubusercontent.com/JeffSackmann/tennis_atp/refs/heads/master/atp_matches_2019.csv",
  show_col_types = FALSE)
t2019 <- m %>%
  filter(str_starts(tourney_id, "2019-")) %>%
  group_by(tourney_id, tourney_name, tourney_level, surface) %>%
  summarise(start_date = min(tourney_date, na.rm = TRUE), .groups = "drop") %>%
  arrange(start_date, tourney_id)
t2019

# A tibble: 128 × 5
   tourney_id                      tourney_name tourney_level surface start_date
   <chr>                           <chr>        <chr>         <chr>        <dbl>
 1 2019-0451                       Doha         A             Hard      20181231
 2 2019-0891                       Pune         A             Hard      20181231
 3 2019-M020                       Brisbane     A             Hard      20181231
 4 2019-0301                       Auckland     A             Hard      20190107
 5 2019-M001                       Sydney       A             Hard      20190107
 6 2019-580                        Australian … G             Hard      20190114
 7 2019-M-DC-2019-QLS-M-AUS-BIH-01 Davis Cup Q… D             Hard      20190201
 8 2019-M-DC-2019-QLS-M-AUT-CHI-01 Davis Cup Q… D             Clay      20190201
 9 2019-M-DC-2019-QLS-M-BEL-BRA-01 Davis Cup Q… D             Clay      20190201
10 2019-M-DC-2019-QLS-M-CAN-SVK-01 Davis Cup Q… D             Clay      20190201
# ℹ 118 more rows
…
